{
  "architecte": null,
  "demandeur": {
    "1": {
      "bp": "",
      "cedex": "",
      "code_postal": "95000",
      "commerciale": "f",
      "complement": "",
      "courriel": "",
      "demandeur": "1",
      "division_territoriale": "",
      "fax": "",
      "frequent": "f",
      "indicatif": "",
      "lieu_dit": "",
      "localite": "Pontoise",
      "notification": "f",
      "numero": "25",
      "om_collectivite": "2",
      "particulier_civilite": "",
      "particulier_commune_naissance": "",
      "particulier_date_naissance": "",
      "particulier_departement_naissance": "",
      "particulier_nom": "",
      "particulier_pays_naissance": "",
      "particulier_prenom": "",
      "pays": "France",
      "personne_morale_categorie_juridique": "SA",
      "personne_morale_civilite": "4",
      "personne_morale_denomination": "La Haute Couture",
      "personne_morale_nom": "Gauthier",
      "personne_morale_prenom": "Jean-paul",
      "personne_morale_raison_sociale": "Mamie Couture",
      "personne_morale_siret": "12345678932145",
      "petitionnaire_principal": "t",
      "qualite": "personne_morale",
      "telephone_fixe": "0876543234",
      "telephone_mobile": "",
      "type_demandeur": "petitionnaire",
      "voie": "route de la soie"
    }
  },
  "donnees_techniques": {
    "am_affou_exhau": "f",
    "am_affou_exhau_sup": "",
    "am_affou_prof": "",
    "am_air_terr_res_mob": "f",
    "am_aire_voyage": "f",
    "am_camping": "f",
    "am_carav_duree": "",
    "am_carav_nb": "",
    "am_caravane": "f",
    "am_coupe_abat": "f",
    "am_coupe_age": "",
    "am_coupe_align": "f",
    "am_coupe_autr": "",
    "am_coupe_bois": "f",
    "am_coupe_dens": "",
    "am_coupe_ess": "",
    "am_coupe_parc": "f",
    "am_coupe_qual": "",
    "am_coupe_trait": "",
    "am_div_mun": "f",
    "am_empl_hll_nb": "",
    "am_exhau_haut": "",
    "am_exist_agrand": "f",
    "am_exist_date": "",
    "am_exist_date_num": "",
    "am_exist_nb_apres": "",
    "am_exist_nb_avant": "",
    "am_exist_num": "",
    "am_hll_shon": "",
    "am_lotiss": "f",
    "am_mob_art": "f",
    "am_mobil_nb": "",
    "am_mobil_voyage": "f",
    "am_modif_voie_esp": "f",
    "am_pers_nb": "",
    "am_plant_voie_esp": "f",
    "am_projet_desc": "",
    "am_prot_muni": "f",
    "am_prot_plu": "f",
    "am_rememb_afu": "f",
    "am_statio": "f",
    "am_statio_cont": "",
    "am_tente_nb": "",
    "am_terr_res_demon": "f",
    "am_terr_surf": "",
    "am_tranche_desc": "",
    "cerfa": "154",
    "co_abo_monu_hist": "f",
    "co_anx_abri": "f",
    "co_anx_autr": "f",
    "co_anx_autr_desc": "",
    "co_anx_gara": "f",
    "co_anx_pisc": "t",
    "co_anx_veran": "f",
    "co_bat_niv_nb": "",
    "co_cloture": "f",
    "co_cstr_exist": "f",
    "co_cstr_nouv": "f",
    "co_derog_esp_prot": "f",
    "co_elec_tension": "",
    "co_fin_aa_nb": "",
    "co_fin_autr_nb": "",
    "co_fin_lls_nb": "",
    "co_fin_ptz_nb": "",
    "co_foyer_chamb_nb": "",
    "co_inst_ouvr_trav_act_code_envir": "f",
    "co_log_1p_nb": "",
    "co_log_2p_nb": "",
    "co_log_3p_nb": "",
    "co_log_4p_nb": "",
    "co_log_5p_nb": "",
    "co_log_6p_nb": "",
    "co_peri_site_patri_remar": "f",
    "co_piscine": "f",
    "co_projet_desc": "",
    "co_resid_agees": "f",
    "co_resid_autr": "f",
    "co_resid_autr_desc": "",
    "co_resid_etud": "f",
    "co_resid_hand": "f",
    "co_resid_hot_soc": "f",
    "co_resid_soc": "f",
    "co_resid_tourism": "f",
    "co_sp_act_soc": "f",
    "co_sp_culture": "f",
    "co_sp_enseign": "f",
    "co_sp_ouvr_spe": "f",
    "co_sp_sante": "f",
    "co_sp_transport": "f",
    "co_statio_adr": "",
    "co_statio_apr_nb": "",
    "co_statio_avt_nb": "",
    "co_statio_comm_cin_surf": "",
    "co_statio_place_nb": "",
    "co_statio_tot_shob": "",
    "co_statio_tot_surf": "",
    "co_tot_coll_nb": "",
    "co_tot_ind_nb": "",
    "co_tot_log_nb": "",
    "co_trav_auto_env": "f",
    "co_trx_exten": "f",
    "co_trx_nivsup": "f",
    "co_trx_surelev": "f",
    "co_uti_loc": "f",
    "co_uti_pers": "f",
    "co_uti_princ": "t",
    "co_uti_secon": "f",
    "co_uti_vente": "f",
    "code_cnil": "f",
    "daact_date": "",
    "daact_date_chgmt_dest": "",
    "daact_nb_log": "",
    "daact_nb_log_aa": "",
    "daact_nb_log_autre": "",
    "daact_nb_log_coll": "",
    "daact_nb_log_indiv": "",
    "daact_nb_log_lls": "",
    "daact_nb_log_ptz": "",
    "daact_surf": "",
    "daact_tot_trav": "f",
    "daact_tranche_trav": "f",
    "daact_tranche_trav_desc": "",
    "doc_date": "",
    "doc_nb_log": "",
    "doc_nb_log_aa": "",
    "doc_nb_log_autre": "",
    "doc_nb_log_coll": "",
    "doc_nb_log_indiv": "",
    "doc_nb_log_lls": "",
    "doc_nb_log_ptz": "",
    "doc_surf": "",
    "doc_tot_trav": "f",
    "doc_tranche_trav": "f",
    "doc_tranche_trav_desc": "",
    "donnees_techniques": "2",
    "exo_facul_1": "f",
    "exo_facul_2": "f",
    "exo_facul_3": "f",
    "exo_facul_4": "f",
    "exo_facul_5": "f",
    "exo_facul_6": "f",
    "exo_facul_7": "f",
    "exo_facul_8": "f",
    "exo_facul_9": "f",
    "exo_rap_1": "f",
    "exo_rap_2": "f",
    "exo_rap_3": "f",
    "exo_rap_4": "f",
    "exo_rap_5": "f",
    "exo_rap_6": "f",
    "exo_rap_7": "f",
    "exo_rap_8": "f",
    "exo_ta_1": "f",
    "exo_ta_2": "f",
    "exo_ta_3": "f",
    "exo_ta_4": "f",
    "exo_ta_5": "f",
    "exo_ta_6": "f",
    "exo_ta_7": "f",
    "exo_ta_8": "f",
    "exo_ta_9": "f",
    "mtn_exo_rap": "",
    "mtn_exo_ta_part_commu": "",
    "mtn_exo_ta_part_depart": "",
    "mtn_exo_ta_part_reg": "",
    "ope_proj_div_co": "f",
    "ope_proj_div_contr": "f",
    "su_avt_shon1": "",
    "su_avt_shon2": "",
    "su_avt_shon3": "",
    "su_avt_shon4": "",
    "su_avt_shon5": "",
    "su_avt_shon6": "",
    "su_avt_shon7": "",
    "su_avt_shon8": "",
    "su_avt_shon9": "",
    "su_avt_shon_tot": "",
    "su_chge_shon1": "",
    "su_chge_shon2": "",
    "su_chge_shon3": "",
    "su_chge_shon4": "",
    "su_chge_shon5": "",
    "su_chge_shon6": "",
    "su_chge_shon7": "",
    "su_chge_shon8": "",
    "su_chge_shon9": "",
    "su_chge_shon_tot": "",
    "su_cstr_shon1": "",
    "su_cstr_shon2": "",
    "su_cstr_shon3": "",
    "su_cstr_shon4": "",
    "su_cstr_shon5": "",
    "su_cstr_shon6": "",
    "su_cstr_shon7": "",
    "su_cstr_shon8": "",
    "su_cstr_shon9": "",
    "su_cstr_shon_tot": "",
    "su_demo_shon1": "",
    "su_demo_shon2": "",
    "su_demo_shon3": "",
    "su_demo_shon4": "",
    "su_demo_shon5": "",
    "su_demo_shon6": "",
    "su_demo_shon7": "",
    "su_demo_shon8": "",
    "su_demo_shon9": "",
    "su_demo_shon_tot": "",
    "su_sup_shon1": "",
    "su_sup_shon2": "",
    "su_sup_shon3": "",
    "su_sup_shon4": "",
    "su_sup_shon5": "",
    "su_sup_shon6": "",
    "su_sup_shon7": "",
    "su_sup_shon8": "",
    "su_sup_shon9": "",
    "su_sup_shon_tot": "",
    "su_tot_shon1": "",
    "su_tot_shon2": "",
    "su_tot_shon3": "",
    "su_tot_shon4": "",
    "su_tot_shon5": "",
    "su_tot_shon6": "",
    "su_tot_shon7": "",
    "su_tot_shon8": "",
    "su_tot_shon9": "",
    "su_tot_shon_tot": "",
    "tax_am_statio_ext_arch": "",
    "tax_am_statio_ext_cr": "",
    "tax_comm_nb": "",
    "tax_desc": "",
    "tax_empl_hll_nb_arch": "",
    "tax_empl_hll_nb_cr": "",
    "tax_empl_ten_carav_mobil_nb_arch": "",
    "tax_empl_ten_carav_mobil_nb_cr": "",
    "tax_eol_haut_nb_cr": "",
    "tax_ext_desc": "",
    "tax_ext_pret": "f",
    "tax_log_exist_nb": "",
    "tax_monu_hist": "f",
    "tax_pann_volt_sup_cr": "",
    "tax_statut_info": "Déclaré",
    "tax_su_heber_log_nb1": "",
    "tax_su_heber_log_nb2": "",
    "tax_su_heber_log_nb3": "",
    "tax_su_heber_surf1": "",
    "tax_su_heber_surf2": "",
    "tax_su_heber_surf3": "",
    "tax_su_heber_surf_stat1": "",
    "tax_su_heber_surf_stat2": "",
    "tax_su_heber_surf_stat3": "",
    "tax_su_non_habit_abr_jard_pig_colom": "",
    "tax_su_non_habit_surf1": "",
    "tax_su_non_habit_surf2": "",
    "tax_su_non_habit_surf3": "",
    "tax_su_non_habit_surf4": "",
    "tax_su_non_habit_surf5": "",
    "tax_su_non_habit_surf6": "",
    "tax_su_non_habit_surf7": "",
    "tax_su_non_habit_surf_stat1": "",
    "tax_su_non_habit_surf_stat2": "",
    "tax_su_non_habit_surf_stat3": "",
    "tax_su_non_habit_surf_stat4": "",
    "tax_su_non_habit_surf_stat5": "",
    "tax_su_non_habit_surf_stat6": "",
    "tax_su_non_habit_surf_stat7": "",
    "tax_su_parc_statio_expl_comm_surf": "",
    "tax_su_princ_log_nb1": "",
    "tax_su_princ_log_nb2": "",
    "tax_su_princ_log_nb3": "",
    "tax_su_princ_log_nb4": "",
    "tax_su_princ_surf1": "",
    "tax_su_princ_surf2": "",
    "tax_su_princ_surf3": "",
    "tax_su_princ_surf4": "",
    "tax_su_princ_surf_stat1": "",
    "tax_su_princ_surf_stat2": "",
    "tax_su_princ_surf_stat3": "",
    "tax_su_princ_surf_stat4": "",
    "tax_su_secon_log_nb": "",
    "tax_su_secon_surf": "",
    "tax_su_secon_surf_stat": "",
    "tax_su_tot_log_nb": "",
    "tax_su_tot_surf": "",
    "tax_su_tot_surf_stat": "",
    "tax_sup_bass_pisc_cr": "20",
    "tax_surf_abr_jard_pig_colom": "",
    "tax_surf_loc_arch": "",
    "tax_surf_loc_stat": "",
    "tax_surf_pisc_arch": "2",
    "tax_surf_tax_exist_cons": "",
    "tax_surf_tot_cstr": "",
    "tax_trx_presc_ppr": "f",
    "terr_juri_afu": "nesaispas",
    "terr_juri_desc": "",
    "terr_juri_lot": "non",
    "terr_juri_oin": "nesaispas",
    "terr_juri_pup": "nesaispas",
    "terr_juri_titul": "nesaispas",
    "terr_juri_zac": "nesaispas",
    "vsd_const_sxist_non_dem_surf": "",
    "vsd_rescr_fisc": "",
    "vsd_surf_planch_smd": "f",
    "vsd_unit_fonc_constr_sup": "",
    "vsd_unit_fonc_sup": "",
    "vsd_val_terr": ""
  },
  "dossier": {
    "a_qualifier": "t",
    "accord_tacite": "Non",
    "annee": "18",
    "autorisation_contestee": "",
    "autorite_competente": "2",
    "autorite_competente_code": "ETAT",
    "avis_decision": "",
    "contrevenants": "",
    "ctx_reference_dsj": "",
    "ctx_reference_sagace": "",
    "date_achevement": "",
    "date_affichage": "",
    "date_ait": "",
    "date_audience": "",
    "date_chantier": "",
    "date_cloture_instruction": "",
    "date_complet": "2018-01-01",
    "date_conformite": "",
    "date_contradictoire": "",
    "date_decision": "",
    "date_demande": "2018-01-01",
    "date_depot": "2018-01-01",
    "date_dernier_depot": "2018-01-01",
    "date_derniere_visite": "",
    "date_limite": "2018-02-01",
    "date_limite_incompletude": "",
    "date_modification": "2020-06-29",
    "date_notification_delai": "2018-02-01",
    "date_premiere_visite": "",
    "date_rejet": "",
    "date_retour_contradictoire": "",
    "date_transmission_parquet": "",
    "date_validite": "",
    "delai": "1",
    "delai_incompletude": "",
    "depot_electronique": "f",
    "description": "",
    "description_projet": "",
    "division": "2",
    "dossier": "DP0132011800001",
    "dossier_arrondissement": "",
    "dossier_autorisation": "DP0132011800001",
    "dossier_autorisation_libelle": "DP 013201 18 00001",
    "dossier_autorisation_type_code": "DP",
    "dossier_autorisation_type_detaille": "DECLARATION PREALABLE",
    "dossier_autorisation_type_detaille_code": "DP",
    "dossier_instruction_type": "21",
    "dossier_instruction_type_code": "P",
    "dossier_libelle": "DP 013201 18 00001",
    "dossier_petitionnaire": "Mamie Couture La Haute Couture",
    "dossier_petitionnaires": "",
    "dossier_suffixe": "",
    "dt_ctx_infraction": "f",
    "dt_ctx_regularisable": "f",
    "dt_ctx_synthese_anr": "",
    "dt_ctx_synthese_nti": "",
    "duree_validite": "36",
    "enjeu_ctx": "",
    "enjeu_erp": "f",
    "enjeu_urba": "f",
    "erp": "f",
    "etat": "notifie_etat",
    "etat_pendant_incompletude": "",
    "evenement_suivant_tacite": "218",
    "evenement_suivant_tacite_incompletude": "",
    "geom": "",
    "geom1": "",
    "hash_sitadel": "",
    "incomplet_notifie": "f",
    "incompletude": "f",
    "insee": "13201",
    "instructeur": "2",
    "instructeur_2": "",
    "interface_referentiel_erp": "f",
    "numero_versement_archive": "",
    "om_collectivite": "2",
    "parcelle_temporaire": "f",
    "quartier": "",
    "requerants": "",
    "tax_mtn_part_commu": "",
    "tax_mtn_part_commu_sans_exo": "",
    "tax_mtn_part_depart": "",
    "tax_mtn_part_depart_sans_exo": "",
    "tax_mtn_part_reg": "",
    "tax_mtn_part_reg_sans_exo": "",
    "tax_mtn_rap": "",
    "tax_mtn_rap_sans_exo": "",
    "tax_mtn_total": "",
    "tax_mtn_total_sans_exo": "",
    "tax_secteur": "",
    "terrain": "888GG8888 43 route de la soie 95000",
    "terrain_adresse_bp": "",
    "terrain_adresse_cedex": "",
    "terrain_adresse_code_postal": "95000",
    "terrain_adresse_lieu_dit": "",
    "terrain_adresse_localite": "Pontoise",
    "terrain_adresse_voie": "route de la soie",
    "terrain_adresse_voie_numero": "43",
    "terrain_references_cadastrales": "888GG8888;",
    "terrain_superficie": "600",
    "version": "0",
    "version_clos": ""
  },
  "dossier_parcelle": {
    "1": {
      "dossier_parcelle": "1",
      "libelle": "888GG8888",
      "no_ordre": 1
    }
  },
  "external_uid": {
    "dossier": "",
    "dossier_autorisation": ""
  },
  "task": {
    "object_id": "DP0132011800001",
    "state": "new",
    "task": "2",
    "timestamp_log": {
      "creation_date": "2020-06-29 16:30:30"
    },
    "type": "creation_DI"
  }
}
